bdt_cuts_,0.942321,0.942321,0.942321,0.942321,0.941585,0.932882,0.942319,0.942563,0.9424,0.942366,0.942587,0.942307,0.942283,0.942315,0.94833,0.934645,0.934645,0.934645,0.934645,0.933766,0.923793,0.934668,0.934592,0.934626,0.934595
bdt_cuts_,0.942321,0.942321,0.942321,0.942321,0.941585,0.932882,0.942319,0.942563,0.9424,0.942366,0.942587,0.942307,0.942283,0.942315,0.94833,0.934645,0.934645,0.934645,0.934645,0.933766,0.923793,0.934668,0.934592,0.934626,0.934595
bdt_cuts_,0.942321,0.942321,0.942321,0.942321,0.941585,0.932882,0.942319,0.942563,0.9424,0.942366,0.942587,0.942307,0.942283,0.942315,0.94833,0.934645,0.934645,0.934645,0.934645,0.933766,0.923793,0.934668,0.934592,0.934626,0.934595
bdt_cuts_,0.942321,0.942321,0.942321,0.942321,0.941585,0.932882,0.942319,0.942563,0.9424,0.942366,0.942587,0.942307,0.942283,0.942315,0.94833,0.934645,0.934645,0.934645,0.934645,0.933766,0.923793,0.934668,0.934592,0.934626,0.934595
